%YAML 1.1
%TAG !u! tag:unity3d.com,2011:
--- !u!1001 &8014825706276136946
PrefabInstance:
  m_ObjectHideFlags: 0
  serializedVersion: 2
  m_Modification:
    m_TransformParent: {fileID: 0}
    m_Modifications:
    - target: {fileID: 3264578224476720197, guid: 322e81a1150ae004e881969db417633a,
        type: 3}
      propertyPath: m_IsTrigger
      value: 1
      objectReference: {fileID: 0}
    - target: {fileID: 3556874935753332964, guid: 322e81a1150ae004e881969db417633a,
        type: 3}
      propertyPath: m_Mesh
      value: 
      objectReference: {fileID: 8820878917054186670, guid: bcb92114a7e586246b7640ae7431463e,
        type: 3}
    - target: {fileID: 3556874935753332965, guid: 322e81a1150ae004e881969db417633a,
        type: 3}
      propertyPath: m_RootOrder
      value: 0
      objectReference: {fileID: 0}
    - target: {fileID: 3556874935753332965, guid: 322e81a1150ae004e881969db417633a,
        type: 3}
      propertyPath: m_LocalScale.x
      value: 0.5
      objectReference: {fileID: 0}
    - target: {fileID: 3556874935753332965, guid: 322e81a1150ae004e881969db417633a,
        type: 3}
      propertyPath: m_LocalScale.y
      value: 0.5
      objectReference: {fileID: 0}
    - target: {fileID: 3556874935753332965, guid: 322e81a1150ae004e881969db417633a,
        type: 3}
      propertyPath: m_LocalScale.z
      value: 0.2
      objectReference: {fileID: 0}
    - target: {fileID: 3556874935753332965, guid: 322e81a1150ae004e881969db417633a,
        type: 3}
      propertyPath: m_LocalPosition.x
      value: 0
      objectReference: {fileID: 0}
    - target: {fileID: 3556874935753332965, guid: 322e81a1150ae004e881969db417633a,
        type: 3}
      propertyPath: m_LocalPosition.y
      value: 0
      objectReference: {fileID: 0}
    - target: {fileID: 3556874935753332965, guid: 322e81a1150ae004e881969db417633a,
        type: 3}
      propertyPath: m_LocalPosition.z
      value: 0
      objectReference: {fileID: 0}
    - target: {fileID: 3556874935753332965, guid: 322e81a1150ae004e881969db417633a,
        type: 3}
      propertyPath: m_LocalRotation.w
      value: 1
      objectReference: {fileID: 0}
    - target: {fileID: 3556874935753332965, guid: 322e81a1150ae004e881969db417633a,
        type: 3}
      propertyPath: m_LocalRotation.x
      value: 0
      objectReference: {fileID: 0}
    - target: {fileID: 3556874935753332965, guid: 322e81a1150ae004e881969db417633a,
        type: 3}
      propertyPath: m_LocalRotation.y
      value: 0
      objectReference: {fileID: 0}
    - target: {fileID: 3556874935753332965, guid: 322e81a1150ae004e881969db417633a,
        type: 3}
      propertyPath: m_LocalRotation.z
      value: 0
      objectReference: {fileID: 0}
    - target: {fileID: 3556874935753332965, guid: 322e81a1150ae004e881969db417633a,
        type: 3}
      propertyPath: m_LocalEulerAnglesHint.x
      value: 0
      objectReference: {fileID: 0}
    - target: {fileID: 3556874935753332965, guid: 322e81a1150ae004e881969db417633a,
        type: 3}
      propertyPath: m_LocalEulerAnglesHint.y
      value: 0
      objectReference: {fileID: 0}
    - target: {fileID: 3556874935753332965, guid: 322e81a1150ae004e881969db417633a,
        type: 3}
      propertyPath: m_LocalEulerAnglesHint.z
      value: 0
      objectReference: {fileID: 0}
    - target: {fileID: 3556874935753332966, guid: 322e81a1150ae004e881969db417633a,
        type: 3}
      propertyPath: m_Name
      value: T
      objectReference: {fileID: 0}
    - target: {fileID: 3556874935753332966, guid: 322e81a1150ae004e881969db417633a,
        type: 3}
      propertyPath: m_TagString
      value: CollectableLetter
      objectReference: {fileID: 0}
    m_RemovedComponents: []
  m_SourcePrefab: {fileID: 100100000, guid: 322e81a1150ae004e881969db417633a, type: 3}
--- !u!1 &6802387531226906388 stripped
GameObject:
  m_CorrespondingSourceObject: {fileID: 3556874935753332966, guid: 322e81a1150ae004e881969db417633a,
    type: 3}
  m_PrefabInstance: {fileID: 8014825706276136946}
  m_PrefabAsset: {fileID: 0}
--- !u!114 &263213097618700015
MonoBehaviour:
  m_ObjectHideFlags: 0
  m_CorrespondingSourceObject: {fileID: 0}
  m_PrefabInstance: {fileID: 0}
  m_PrefabAsset: {fileID: 0}
  m_GameObject: {fileID: 6802387531226906388}
  m_Enabled: 1
  m_EditorHideFlags: 0
  m_Script: {fileID: 11500000, guid: c42a46a5cae567541b663c7c08fe144d, type: 3}
  m_Name: 
  m_EditorClassIdentifier: 
  isActive: 0
--- !u!114 &5828472173974303016
MonoBehaviour:
  m_ObjectHideFlags: 0
  m_CorrespondingSourceObject: {fileID: 0}
  m_PrefabInstance: {fileID: 0}
  m_PrefabAsset: {fileID: 0}
  m_GameObject: {fileID: 6802387531226906388}
  m_Enabled: 1
  m_EditorHideFlags: 0
  m_Script: {fileID: 11500000, guid: f92177f87df6a7246a065ee21460616e, type: 3}
  m_Name: 
  m_EditorClassIdentifier: 
