%YAML 1.1
%TAG !u! tag:unity3d.com,2011:
--- !u!78 &1
TagManager:
  serializedVersion: 2
  tags:
  - Floor
  - Booster
  - DoorPlate
  - DeathField
  - CollectableLetter
  - Position
  - Barrel
  - LifeFieldForProjectiles
  - BossThreeChild
  - Gun
  - Pedestal
  - Projectile
  - BossThree
  - Ramp
  - ChamberFourWall
  - BossFour
  - BossFive
  layers:
  - Default
  - TransparentFX
  - Ignore Raycast
  - 
  - Water
  - UI
  - Floor
  - Player
  - 
  - 
  - 
  - 
  - 
  - 
  - 
  - 
  - 
  - 
  - 
  - 
  - 
  - 
  - 
  - 
  - 
  - 
  - 
  - 
  - 
  - 
  - 
  - 
  m_SortingLayers:
  - name: Default
    uniqueID: 0
    locked: 0
